{
    "subcircuit": [
        {
            "name": "SUBCKT Sensor Tilt",
            "classifications": "Sensors/",
            "position": 9,
            "searchMetadata": {
                "score": 1.146357
            },
            "id": "00dd187e-2d05-4a8e-ac96-ae82a9c2905f"
        },
        {
            "name": "SUBCKT Sensor UV",
            "classifications": "Sensors/",
            "position": 10,
            "searchMetadata": {
                "score": 1.146357
            },
            "id": "059bec79-2290-4fa6-8f35-8526cd6fd461"
        },
        {
            "name": "SUBCKT Sensor Acceleration",
            "classifications": "Sensors/",
            "position": 1,
            "searchMetadata": {
                "score": 1.1031255
            },
            "id": "ec899360-7797-4c2b-927c-e8077f632f57"
        },
        {
            "name": "SUBCKT Sensor Proximity",
            "classifications": "Sensors/",
            "position": 8,
            "searchMetadata": {
                "score": 1.0807533
            },
            "id": "719ea61d-a54d-4e3a-8e8e-0cd7bb234193"
        },
        {
            "name": "SUBCKT SENSOR TEMPERATURE",
            "classifications": "Sensors/",
            "position": 0,
            "searchMetadata": {
                "score": 1.0807533
            },
            "id": "78867aa6-f672-4fa6-bd04-600df96d0b9f"
        },
        {
            "name": "SUBCKT Sensor Gesture",
            "classifications": "Sensors/",
            "position": 6,
            "searchMetadata": {
                "score": 1.0807533
            },
            "id": "65db4ac7-b952-4184-9075-6250661e4cf6"
        },
        {
            "name": "NewDC  SUBCKT Sensor Blood-Pressure",
            "classifications": "Sensors/",
            "position": 3,
            "searchMetadata": {
                "score": 1.0243845
            },
            "id": "17b4d38b-982a-421a-a5a1-a619a28145b3"
        },
        {
            "name": "SUBCKT Sensor Altitude-Pressure",
            "classifications": "Sensors/",
            "position": 2,
            "searchMetadata": {
                "score": 1.0091798
            },
            "id": "07526eb3-6985-44a9-944f-d36b90fd9fe0"
        },
        {
            "name": "SUBCKT Sensor Blood-Pressure",
            "classifications": "Sensors/",
            "position": 4,
            "searchMetadata": {
                "score": 0.9722718
            },
            "id": "9c213da2-44e7-4ffe-ab26-54f9f7f2278e"
        },
        {
            "name": "SUBCKT SENSOR CAPACITIVE TOUCH",
            "classifications": "Sensors/",
            "position": 5,
            "searchMetadata": {
                "score": 0.9722718
            },
            "id": "9a7dccbb-8610-4575-9c03-d5446215faf6"
        }
    ],
    "max_score": 1.146357,
    "total": 10
}