{
    "total": 1,
    "max_score": 1.0887764,
    "component": [
        {
            "name": "C 1210 4.7u 25V 20% X5R",
            "classifications": "passive_components/capacitors/single_components/",
            "componentProperties": [
                {
                    "name": "Ls",
                    "stringValue": "1.0n",
                    "numericValue": 1e-9,
                    "units": "H"
                },
                {
                    "name": "Octopart mpn",
                    "stringValue": "TMK325BJ475MNHT"
                },
                {
                    "name": "Rs",
                    "stringValue": "10m",
                    "numericValue": 0.01,
                    "units": "ohm"
                },
                {
                    "name": "Rp",
                    "stringValue": "5.0G",
                    "numericValue": 5000000000,
                    "units": "ohm"
                },
                {
                    "name": "C",
                    "stringValue": "4.7u",
                    "numericValue": 0.0000047,
                    "units": "F"
                }
            ],
            "position": 18,
            "searchMetadata": {
                "score": 1.0887764
            },
            "id": "50cce5b1-9673-4d03-92f3-c9bb15c82491"
        }
    ]
}