{
    "components": [
        {
            "id": "6406b33f-ca2a-4832-8f54-b2d1e41a36c7",
            "name": "R 1206 0.0 0.25W JUMPER% Thick Film",
            "classificationLabels": [
                "passive_components",
                "resistors",
                "single_components"
            ],
            "prominentProperties": [
                {
                    "name": "Resistance",
                    "value": "0.0",
                    "units": "ohm"
                }
            ],
            "otherProperties": [
                {
                    "name": "Cp",
                    "value": "70f",
                    "units": "F"
                },
                {
                    "name": "Octopart mpn",
                    "value": "RC3216J000CS"
                },
                {
                    "name": "Ls",
                    "value": "950p",
                    "units": "H"
                }
            ],
            "position": 0
        },
        {
            "id": "9cb94ab1-026f-4bce-9188-78a9d737fc61",
            "name": "R 1206 1.0M 0.25W 5% Thick Film",
            "classificationLabels": [
                "passive_components",
                "resistors",
                "single_components"
            ],
            "prominentProperties": [
                {
                    "name": "Resistance",
                    "value": "1.0M",
                    "units": "ohm"
                }
            ],
            "otherProperties": [
                {
                    "name": "Cp",
                    "value": "70f",
                    "units": "F"
                },
                {
                    "name": "Octopart mpn",
                    "value": "RC3216J105CS"
                },
                {
                    "name": "Ls",
                    "value": "950p",
                    "units": "H"
                }
            ],
            "position": 1
        },
        {
            "id": "2e8862c4-ad06-4a2e-9211-3ba8f444efe3",
            "name": "R 1206 1.0M 0.333W 5% Thick Film",
            "classificationLabels": [
                "passive_components",
                "resistors",
                "single_components"
            ],
            "prominentProperties": [
                {
                    "name": "Resistance",
                    "value": "1.0M",
                    "units": "ohm"
                }
            ],
            "otherProperties": [
                {
                    "name": "Cp",
                    "value": "70f",
                    "units": "F"
                },
                {
                    "name": "Octopart mpn",
                    "value": "ESR18EZPJ105"
                },
                {
                    "name": "Ls",
                    "value": "950p",
                    "units": "H"
                }
            ],
            "position": 2
        },
        {
            "id": "4cbeeddf-2cd8-4201-b08d-04bb87bea7b4",
            "name": "R 1206 1.0M 0.667W 5% Thick Film",
            "classificationLabels": [
                "passive_components",
                "resistors",
                "single_components"
            ],
            "prominentProperties": [
                {
                    "name": "Resistance",
                    "value": "1.0M",
                    "units": "ohm"
                }
            ],
            "otherProperties": [
                {
                    "name": "Cp",
                    "value": "70f",
                    "units": "F"
                },
                {
                    "name": "Octopart mpn",
                    "value": "ERJ-P08J105V"
                },
                {
                    "name": "Ls",
                    "value": "950p",
                    "units": "H"
                }
            ],
            "position": 3
        }
    ]
}